<?xml version="1.0" encoding="UTF-8"?>
<svg width="35px" height="27px" viewBox="0 0 35 27" version="1.1" xmlns="http://www.w3.org/2000/svg" xmlns:xlink="http://www.w3.org/1999/xlink">
    <!-- Generator: Sketch 55.1 (78136) - https://sketchapp.com -->
    <title>icon-serves</title>
    <desc>Created with Sketch.</desc>
    <g id="Website" stroke="none" stroke-width="1" fill="none" fill-rule="evenodd">
        <g id="Article-Copy" transform="translate(-809.000000, -557.000000)" fill="#000000" fill-rule="nonzero">
            <g id="icon-serves" transform="translate(809.000000, 557.000000)">
                <path d="M34.4473828,23.2643646 L33.5163965,23.2643646 C33.466084,21.8041546 33.2141113,20.3667224 32.7651953,18.9846849 C32.2766992,17.4810082 31.5619336,16.0609627 30.6401758,14.7621521 C29.7309277,13.4807282 28.6366309,12.3410931 27.3877051,11.3749877 C26.1277051,10.3993804 24.7336523,9.61927184 23.2445117,9.05555312 C21.5938379,8.43044197 19.8610645,8.08419132 18.0852246,8.02165325 L19.7221582,6.40772624 C20.4424609,5.6975687 20.4424609,4.54202958 19.7220898,3.83180466 C19.373252,3.48798005 18.9093652,3.2985463 18.4158789,3.2985463 C18.0894629,3.2985463 17.7760352,3.3814362 17.5002051,3.53697269 C17.224375,3.3814362 16.9108789,3.2985463 16.5845313,3.2985463 C16.0911816,3.2985463 15.6272266,3.48791266 15.278252,3.83173727 C14.929209,4.17576405 14.7369141,4.63320847 14.7369141,5.11983284 C14.7369141,5.6064572 14.929209,6.06383424 15.2781836,6.40779363 L16.9153223,8.02172064 C15.7748145,8.06215473 14.6439453,8.2199825 13.5454785,8.49486697 C12.2972363,8.80722037 11.0881641,9.26917994 9.95121094,9.86922195 C9.68228516,10.0108761 9.58056641,10.3413574 9.72425781,10.6065377 C9.82078125,10.7845151 10.0079492,10.8941589 10.2120703,10.8941589 C10.3027148,10.8941589 10.3926074,10.8723919 10.4729297,10.8302731 C11.531748,10.2716086 12.6569434,9.84159198 13.8181641,9.55107299 C14.9861523,9.25873447 16.1956348,9.10818484 17.4129785,9.10063714 C17.441416,9.10508489 17.4704004,9.10805006 17.5001367,9.10805006 C17.5306934,9.10805006 17.5604297,9.1050175 17.5895508,9.1002328 C19.4018945,9.11135218 21.170625,9.4379923 22.8480957,10.0725381 C24.2347656,10.597777 25.5323633,11.3241756 26.7061621,12.2321232 C27.8682031,13.1321189 28.8872363,14.1933791 29.7339355,15.3861176 C30.5923242,16.5948276 31.258418,17.9175617 31.7130078,19.3173902 C32.127334,20.5926816 32.361123,21.9176396 32.4108887,23.2643646 L2.59020508,23.2643646 C2.62759766,22.2543882 2.76780273,21.2525661 3.01143555,20.2791152 C3.29,19.1633363 3.70336914,18.0795677 4.23978516,17.0582023 C4.76663086,16.0543585 5.41283203,15.1093462 6.16075195,14.2478304 C6.90498047,13.3906949 7.75010742,12.6170558 8.67193359,11.9487476 C8.91734375,11.7707702 8.97032227,11.429439 8.78985352,11.1875083 C8.68663086,11.0480781 8.51942383,10.9651882 8.34483398,10.9651882 C8.22616211,10.9651882 8.11268555,11.0015115 8.01766602,11.0712603 C7.0280957,11.7882242 6.12103516,12.6185384 5.32150391,13.5388859 C4.51834961,14.4635463 3.82347656,15.47979 3.25766602,16.557763 C2.68139648,17.6553466 2.2378125,18.8197138 1.93798828,20.0182479 C1.67364258,21.0766778 1.52202148,22.1663093 1.48408203,23.2642972 L0.552617188,23.2642972 C0.247392578,23.2642972 0,23.5081822 0,23.8090793 C0,25.3110712 1.23956055,26.5330571 2.7631543,26.5330571 L32.2368457,26.5330571 C33.7604395,26.5330571 35,25.3110712 35,23.8090793 C35,23.5082496 34.7526074,23.2643646 34.4473828,23.2643646 Z M17.5002734,7.05736741 L16.059668,5.63711973 C15.9192578,5.49896989 15.8420801,5.31519692 15.8420801,5.11969806 C15.8420801,4.92419919 15.9193262,4.74049361 16.0595313,4.60227639 C16.1997363,4.46412655 16.3861523,4.38804306 16.5844629,4.38804306 C16.7828418,4.38804306 16.9693262,4.46419394 17.1095996,4.60234378 C17.3254785,4.81495974 17.6752051,4.81495974 17.8908789,4.60227639 C18.0311523,4.46405916 18.2175,4.38804306 18.4158789,4.38804306 C18.6141895,4.38804306 18.8005371,4.46405916 18.9406055,4.60214161 C19.2300391,4.88753895 19.2300391,5.35185717 18.9406055,5.63725451 L17.5002734,7.05736741 Z M32.2368457,25.4434929 L2.7631543,25.4434929 C2.04271484,25.4434929 1.4284375,24.9880028 1.20032227,24.3539288 L2.02207031,24.3539288 C2.02350586,24.3539288 2.02487305,24.3541309 2.02630859,24.3541309 C2.02774414,24.3541309 2.02911133,24.3539288 2.03054688,24.3539288 L32.9694531,24.3539288 C32.9708887,24.3539288 32.9722559,24.3541309 32.9736914,24.3541309 C32.975127,24.3541309 32.9764941,24.3539288 32.9779297,24.3539288 L33.7996777,24.3539288 C33.5714941,24.9880702 32.9572852,25.4434929 32.2368457,25.4434929 Z" id="Shape"></path>
                <path d="M3.15382813,5.2632391 C1.31393555,3.44943287 3.12785156,0.993263609 3.20591797,0.889617539 C3.38816406,0.648967268 3.3384668,0.308242605 3.09462891,0.127906529 C2.85044922,-0.052564327 2.50407227,-0.00384123928 2.3209375,0.236876422 C2.29578125,0.269964992 1.70160156,1.05896902 1.40095703,2.145568 C0.984238281,3.6520077 1.32008789,4.99644145 2.37227539,6.03377823 C4.21223633,7.84751707 2.39832031,10.3038211 2.32100586,10.4064563 C2.13787109,10.647174 2.18736328,10.9886399 2.43154297,11.1691782 C2.5309375,11.2426335 2.64728516,11.2781482 2.76267578,11.2781482 C2.93070313,11.2781482 3.09667969,11.2029407 3.20523438,11.0602083 C3.23039063,11.0271197 3.82463867,10.2381157 4.12521484,9.15144933 C4.54193359,7.64500963 4.20608398,6.30057588 3.15382813,5.2632391 Z" id="Path"></path>
                <path d="M9.04852539,3.08370646 C8.59960938,2.64122265 8.4594043,2.17966743 8.61991211,1.67282601 C8.75382813,1.24975057 9.04791016,0.949392613 9.04852539,0.948718712 C9.26433594,0.735900578 9.26433594,0.390997724 9.04852539,0.17817959 C8.83271484,-0.0345037633 8.4827832,-0.0345037633 8.26697266,0.17817959 C8.21980469,0.224678803 7.79994141,0.651056363 7.58084961,1.29914756 C7.27364258,2.20776912 7.51734375,3.11517766 8.26697266,3.85424558 C8.71650391,4.29726851 8.85650391,4.76226063 8.69517578,5.27577367 C8.5622168,5.6989839 8.27264648,6.00197007 8.26259766,6.01241554 C8.05020508,6.22671626 8.05307617,6.57013653 8.26957031,6.78086557 C8.37730469,6.88572466 8.51757813,6.93795204 8.6577832,6.93795204 C8.80038086,6.93795204 8.94297852,6.88383774 9.05105469,6.77594609 C9.09808594,6.72897514 9.51665039,6.29855417 9.73512695,5.64682391 C10.0416504,4.73260896 9.7978125,3.82230264 9.04852539,3.08370646 Z" id="Path"></path>
                <path d="M32.6276563,6.03371083 C33.6798438,4.99637406 34.0156934,3.65194031 33.5989063,2.14550061 C33.2983301,1.05890163 32.704082,0.269830212 32.6789258,0.236809032 C32.4961328,-0.00357167863 32.1508496,-0.0522273762 31.9066016,0.127636968 C31.6624219,0.307299142 31.6122461,0.648428146 31.7940137,0.889550149 C31.8720801,0.993196219 33.6859961,3.44936548 31.8460352,5.26317171 C30.793916,6.30050849 30.457998,7.64500963 30.8747852,9.15144933 C31.1753613,10.2381157 31.7696094,11.0271871 31.7947656,11.0602083 C31.9031836,11.2028059 32.06875,11.2778111 32.2365723,11.2778111 C32.3516211,11.2778111 32.4676953,11.2424987 32.5670215,11.169313 C32.8112695,10.9896508 32.8614453,10.6485218 32.6796777,10.4073998 C32.6016113,10.3037537 30.7876953,7.84751707 32.6276563,6.03371083 Z" id="Path"></path>
                <path d="M26.3046875,5.27577367 C26.143291,4.76226063 26.2833594,4.29726851 26.7327539,3.85424558 C27.4824512,3.11524506 27.7262207,2.20776912 27.4189453,1.29914756 C27.1997852,0.651056363 26.7799902,0.224746193 26.7328223,0.17817959 C26.5179688,-0.0336276912 26.1711133,-0.0335603011 25.9548242,0.177101348 C25.7386719,0.387628216 25.7367578,0.731991948 25.9490137,0.946427446 C25.9519531,0.949392613 26.2459668,1.24975057 26.3799512,1.67282601 C26.5403223,2.17966743 26.4001855,2.64122265 25.9513379,3.08370646 C25.2021191,3.82237003 24.9582129,4.73260896 25.2647363,5.64682391 C25.4832129,6.29855417 25.9018457,6.72897514 25.9488086,6.77594609 C26.0566113,6.88356818 26.1983887,6.93734553 26.3402344,6.93734553 C26.4795508,6.93734553 26.6190723,6.88558988 26.7268066,6.78194381 C26.9443262,6.57276475 26.9484961,6.22840102 26.7375391,6.0126851 C26.7345996,6.00965255 26.4393555,5.70437511 26.3046875,5.27577367 Z" id="Path"></path>
            </g>
        </g>
    </g>
</svg>