<?xml version="1.0" encoding="UTF-8"?>
<svg width="12px" height="15px" viewBox="0 0 12 15" version="1.1" xmlns="http://www.w3.org/2000/svg" xmlns:xlink="http://www.w3.org/1999/xlink">
    <!-- Generator: Sketch 53.2 (72643) - https://sketchapp.com -->
    <title>icon-pin</title>
    <desc>Created with Sketch.</desc>
    <g id="Website" stroke="none" stroke-width="1" fill="none" fill-rule="evenodd">
        <path d="M4.99679211,9.79498877 C4.63328998,11.3371796 4.27752194,12.8231203 3.50217963,13.9949978 C3.26435643,14.3540611 3.02556647,14.8059371 2.61952686,15 C2.02013505,12.006556 3.27402404,9.48748811 3.76900566,6.97123268 C3.13771074,5.72154248 3.5302157,3.60560042 4.88271431,3.3655999 C6.84137206,3.01872415 6.3251217,5.30997909 5.99352268,6.37498139 C5.80983809,6.95998265 5.48210612,7.51967136 5.53141093,8.16092274 C5.64065492,9.51186316 7.39339258,9.59998835 8.29151353,8.90342435 C9.57923916,7.9087347 9.95240889,5.98591805 9.82576321,4.40622714 C9.63531129,2.00153445 6.82687064,0.806219376 4.34616197,1.76715895 C3.06713719,2.26216002 1.90702401,3.40122497 1.7388076,5.07466609 C1.65179911,5.95591799 1.84225103,6.65998201 2.19995259,7.15685808 C2.25312444,7.23279574 2.43874255,7.36592103 2.46677862,7.56748396 C2.52285076,7.97435984 2.27342643,8.41311079 2.04527083,8.71686144 C0.774946906,8.36248568 0.119482961,7.25717079 0.0150727749,5.85748027 C-0.22661747,2.6699734 2.47257919,0.24746817 5.64645549,0.0205926806 C9.03688625,-0.220345339 11.7225482,1.67715875 11.9719726,4.44372722 C12.1575907,6.49966916 11.4044839,8.56873612 10.2095673,9.68342603 C9.3104796,10.5196778 7.40112667,11.3399921 5.83980768,10.5393654 C5.49467401,10.36124 5.33999226,10.1437395 4.99679211,9.79498877" id="icon-pin" fill="#FFFFFF" fill-rule="nonzero"></path>
    </g>
</svg>